…
I will just run that code again to generate some data.

```r
source("simulate-a-phenotype.R")

exp_design %>% 
  select(cohort, line, replicate, tray, normal_phenotype)
```
```
 # A tibble: 1,872 × 5
    cohort  line      replicate  tray normal_phenotype
    <chr>   <chr>         <int> <int>            <dbl>
  1 cohort1 cohort1_…         1     1           -1.32 
  2 cohort1 cohort1_…         1     1           -1.28 
  3 cohort1 cohort1_…         1     1           -0.395
  4 cohort3 cohort3_…         1     1           -0.943
  5 cohort3 cohort3_…         1     1           -1.30 
  6 cohort3 cohort3_…         1     1            0.450
  7 cohort3 cohort3_…         1     1           -0.931
  8 cohort1 cohort1_…         1     1            0.986
  9 cohort3 cohort3_…         1     1            0.238
 10 cohort1 cohort1_…         1     1           -1.55 
 # ℹ 1,862 more rows
```
…
